%YAML 1.1
%TAG !u! tag:unity3d.com,2011:
--- !u!1 &5792974545043433192
GameObject:
  m_ObjectHideFlags: 0
  m_CorrespondingSourceObject: {fileID: 0}
  m_PrefabInstance: {fileID: 0}
  m_PrefabAsset: {fileID: 0}
  serializedVersion: 6
  m_Component:
  - component: {fileID: 5792974545043433199}
  - component: {fileID: 5792974545043433198}
  m_Layer: 0
  m_Name: Controller
  m_TagString: Untagged
  m_Icon: {fileID: 0}
  m_NavMeshLayer: 0
  m_StaticEditorFlags: 0
  m_IsActive: 1
--- !u!4 &5792974545043433199
Transform:
  m_ObjectHideFlags: 0
  m_CorrespondingSourceObject: {fileID: 0}
  m_PrefabInstance: {fileID: 0}
  m_PrefabAsset: {fileID: 0}
  m_GameObject: {fileID: 5792974545043433192}
  m_LocalRotation: {x: 0, y: 0, z: 0, w: 1}
  m_LocalPosition: {x: -0.058221325, y: -0.34986076, z: -2.6361172}
  m_LocalScale: {x: 1, y: 1, z: 1}
  m_Children: []
  m_Father: {fileID: 0}
  m_RootOrder: 0
  m_LocalEulerAnglesHint: {x: 0, y: 0, z: 0}
--- !u!114 &5792974545043433198
MonoBehaviour:
  m_ObjectHideFlags: 0
  m_CorrespondingSourceObject: {fileID: 0}
  m_PrefabInstance: {fileID: 0}
  m_PrefabAsset: {fileID: 0}
  m_GameObject: {fileID: 5792974545043433192}
  m_Enabled: 1
  m_EditorHideFlags: 0
  m_Script: {fileID: 11500000, guid: d4ee13675f70abb4fb2f157220626e78, type: 3}
  m_Name: 
  m_EditorClassIdentifier: 
  m_fieldSize: 5
  m_emptySquares: 0
  m_tokenTypes: 3
  m_tokenColors:
  - {r: 0.8018868, g: 0.54089534, b: 0.54089534, a: 0}
  - {r: 0.70881593, g: 0.5411765, b: 0.8, a: 0}
  - {r: 0.5411765, g: 0.5713378, b: 0.8, a: 0}
  - {r: 0.5411765, g: 0.78746456, b: 0.8, a: 0}
  - {r: 0.5411765, g: 0.8, b: 0.66315305, a: 0}
