{
  "project_info": {
    "project_number": "584998068171",
    "firebase_url": "https://fir-test-4efe0-default-rtdb.firebaseio.com",
    "project_id": "fir-test-4efe0",
    "storage_bucket": "fir-test-4efe0.appspot.com"
  },
  "client": [
    {
      "client_info": {
        "mobilesdk_app_id": "1:584998068171:android:5977af0d6c137c7716204e",
        "android_client_info": {
          "package_name": "com.firebase.test"
        }
      },
      "oauth_client": [
        {
          "client_id": "584998068171-alhnt6ltmvfaqtlg8itni3no9gf7qosn.apps.googleusercontent.com",
          "client_type": 3
        }
      ],
      "api_key": [
        {
          "current_key": "AIzaSyAgjJgrkqWVHLmXqDwrt_7DhBe8VVx15Eo"
        }
      ],
      "services": {
        "appinvite_service": {
          "other_platform_oauth_client": [
            {
              "client_id": "584998068171-alhnt6ltmvfaqtlg8itni3no9gf7qosn.apps.googleusercontent.com",
              "client_type": 3
            }
          ]
        }
      }
    }
  ],
  "configuration_version": "1"
}